{
    "builders": [
        {
            "name": "aws",
            "type": "amazon-ebs",
            "region": "{{user `aws-region`}}",
            "source_ami": "{{user `aws-source-ami`}}",
            "instance_type": "t2.medium",
            "ssh_username": "core",
            "ami_name": "blackfish-bastion-vpn-{{timestamp}}",
            "ami_groups" : "all"
        },
        {
            "name": "openstack",
            "type": "qemu",
            "iso_url": "file:///{{user `openstack_path`}}/coreos_production_openstack_image.img",
            "iso_checksum": "4a63e2055a0c3e16e6d26f427f3ec7e9",
            "iso_checksum_type": "MD5",
            "disk_image" : true,
            "disk_compression": true,
            "output_directory": "builds/coreos-openstack",
            "qemuargs": [[ "-m", "1024M"],
                         ["-virtfs","local,path={{user `openstack_path`}},mount_tag=config-2,security_model=passthrough,id=config-2"]],
            "format": "raw",
            "headless": true,
            "ssh_username": "core",
            "ssh_private_key_file" : "./vagrant_private_key",
            "ssh_host_port_min": 2222,
            "ssh_host_port_max": 2229,
            "ssh_port": 22,
            "ssh_wait_timeout": "20s",
            "vm_name": "coreos-packer",
            "net_device": "virtio-net",
            "disk_interface": "virtio",
            "shutdown_command": "sudo -S shutdown -P now"
        }
    ],
    "provisioners": [
        {
            "only": ["aws", "openstack"],
            "type": "file",
            "source": "./scripts/",
            "destination" : "/tmp"
        },
        {
            "only": ["aws", "openstack"],
            "type": "shell",
            "scripts": [ "scripts/fini.sh" ]
        }
    ],
    "post-processors": [
        [
            {
                "type": "atlas",
                "only": ["aws"],
                "token": "{{user `atlas_token`}}",
                "artifact": "yanndegat/blackfish-bastion",
                "artifact_type": "amazon.image",
                "metadata": {
                    "created_at": "{{timestamp}}",
                    "provider": "virtualbox",
                    "version": "{{user `version`}}"
                }
            },
            {
                "type": "atlas",
                "only": ["openstack"],
                "token": "{{user `atlas_token`}}",
                "artifact": "yanndegat/blackfish-bastion",
                "artifact_type": "openstack.image",
                "metadata": {
                    "created_at": "{{timestamp}}",
                    "provider": "blackfish",
                    "version": "{{user `version`}}"
                }
            }

        ]
    ],
    "variables": {
        "version": "{{env `VERSION`}}",
        "aws-region": "eu-west-1",
        "openstack_path": "{{env `PWD`}}/builds",
        "atlas_token": "{{env `ATLAS_TOKEN`}}",
        "aws-source-ami": "ami-c36effb0"
    }
}
